,group,sam,psnr,ssim,time
0,agoumbi,(7.19 ± 2.72) x 10^0,(1.53 ± 0.11) x 10^1,(3.11 ± 0.52) x 10^-1,(4.15 ± 0.14) x 10^2
1,augereau,(8.95 ± 2.03) x 10^0,(1.31 ± 0.03) x 10^1,(1.08 ± 0.19) x 10^-1,(4.50 ± 0.22) x 10^1
2,baud,(7.59 ± 2.07) x 10^0,(1.87 ± 0.11) x 10^1,(2.62 ± 0.31) x 10^-1,(3.04 ± 0.25) x 10^2
3,benedetti,(1.23 ± 0.30) x 10^1,(9.39 ± 0.45) x 10^0,(1.71 ± 0.21) x 10^-1,(5.97 ± 0.24) x 10^2
4,combat,(8.04 ± 1.78) x 10^0,(1.33 ± 0.03) x 10^1,(1.11 ± 0.19) x 10^-1,(8.63 ± 0.24) x 10^1
5,doussain,(7.62 ± 2.03) x 10^0,(1.52 ± 0.09) x 10^1,(1.93 ± 0.24) x 10^-1,(6.23 ± 0.28) x 10^2
6,dupre,(1.31 ± 0.31) x 10^1,(8.34 ± 1.39) x 10^0,(1.54 ± 0.21) x 10^-1,(7.39 ± 0.31) x 10^2
7,gailly,(8.64 ± 2.80) x 10^0,(1.47 ± 0.26) x 10^1,(2.07 ± 0.51) x 10^-1,(1.75 ± 0.24) x 10^3
8,mjaidila,(8.20 ± 1.80) x 10^0,(1.33 ± 0.03) x 10^1,(1.10 ± 0.17) x 10^-1,(1.04 ± 0.24) x 10^1
9,novarina,(6.89 ± 1.83) x 10^0,(1.41 ± 0.09) x 10^1,(1.91 ± 0.29) x 10^-1,(1.47 ± 0.20) x 10^3
10,owona,(1.55 ± 0.50) x 10^1,(1.63 ± 0.12) x 10^1,(3.51 ± 0.49) x 10^-1,(3.27 ± 0.10) x 10^3
11,pelops,(5.56 ± 1.67) x 10^0,(2.12 ± 0.13) x 10^1,(3.67 ± 0.58) x 10^-1,(1.39 ± 0.05) x 10^2
